<?xml version="1.0"?>
<svg xmlns="http://www.w3.org/2000/svg" xmlns:xlink="http://www.w3.org/1999/xlink" version="1.1" id="Capa_1" x="0px" y="0px" viewBox="0 0 512 512" style="enable-background:new 0 0 512 512;" xml:space="preserve" width="512px" height="512px" class=""><g><g>
	<path style="fill:#50596D;" d="M112.061,165.531h-9.883c-4.716,0-8.54-3.463-8.54-7.734v-16.51c0-4.271,3.823-7.734,8.54-7.734   h9.883V165.531z" data-original="#50596D" class=""/>
	<path style="fill:#50596D;" d="M112.061,435.439h-9.883c-4.716,0-8.54-3.463-8.54-7.734v-16.51c0-4.271,3.823-7.734,8.54-7.734   h9.883V435.439z" data-original="#50596D" class=""/>
	<path style="fill:#50596D;" d="M399.94,118.986h9.883c4.716,0,8.539,3.463,8.539,7.734v131.215c0,4.271-3.823,7.734-8.539,7.734   h-9.883V118.986z" data-original="#50596D" class=""/>
</g><path style="fill:#5C6376;" d="M403.028,31.462v449.076c0,17.379-14.083,31.462-31.451,31.462H140.424  c-17.369,0-31.451-14.082-31.451-31.462V31.462C108.974,14.082,123.056,0,140.424,0h231.152  C388.945,0,403.028,14.082,403.028,31.462z" data-original="#5C6376" class=""/><path style="fill:#4C5568;" d="M403.031,31.462v449.076c0,17.379-14.083,31.462-31.451,31.462h-28.845  c17.369,0,31.451-14.082,31.451-31.462V31.462C374.185,14.082,360.104,0,342.734,0h28.845C388.948,0,403.031,14.082,403.031,31.462z  " data-original="#4C5568" class=""/><path style="fill:#707784;" d="M169.27,512h-28.845c-17.369,0-31.451-14.082-31.451-31.462V31.462  C108.974,14.082,123.056,0,140.424,0h28.845c-17.369,0-31.451,14.082-31.451,31.462v449.076C137.818,497.918,151.9,512,169.27,512z" data-original="#707784"/><rect x="108.971" y="55.96" style="fill:#D1D9E8" width="294.06" height="408.76" data-original="#D1D9E8" class=""/><rect x="108.971" y="55.962" style="fill:#E2E9F2;" width="28.848" height="408.77" data-original="#E2E9F2" class=""/><rect x="374.18" y="55.96" style="fill:#BCC7D8" width="28.845" height="408.76" data-original="#BCC7D8" class=""/><rect x="108.971" y="55.962" style="fill:#D1D9E8" width="294.06" height="37.887" data-original="#FF78BF" class="" data-old_color="#FF78BF"/><rect x="374.19" y="55.962" style="fill:#BCC7D8" width="28.845" height="37.887" data-original="#F261B4" class="" data-old_color="#F261B4"/><rect x="108.971" y="55.962" style="fill:#BCC7D8" width="28.845" height="37.887" data-original="#FF94D1" class="active-path" data-old_color="#FF94D1"/><g>
	<path style="fill:#4C5568;" d="M269.557,36.576h-25.722c-4.268,0-7.726-3.459-7.726-7.726s3.459-7.726,7.726-7.726h25.722   c4.268,0,7.726,3.459,7.726,7.726S273.825,36.576,269.557,36.576z" data-original="#4C5568" class=""/>
	<path style="fill:#4C5568;" d="M215.68,36.576h-1.042c-4.268,0-7.726-3.459-7.726-7.726s3.459-7.726,7.726-7.726h1.042   c4.268,0,7.726,3.459,7.726,7.726S219.948,36.576,215.68,36.576z" data-original="#4C5568" class=""/>
	<path style="fill:#4C5568;" d="M269.557,494.7h-25.722c-4.268,0-7.726-3.459-7.726-7.726s3.459-7.726,7.726-7.726h25.722   c4.268,0,7.726,3.459,7.726,7.726S273.825,494.7,269.557,494.7z" data-original="#4C5568" class=""/>
	<path style="fill:#4C5568;" d="M158.497,212.307h23.251c4.268,0,7.726-3.459,7.726-7.726V181.33c0-4.268-3.459-7.726-7.726-7.726   h-23.251c-4.268,0-7.726,3.459-7.726,7.726v23.251C150.771,208.849,154.23,212.307,158.497,212.307z M166.224,189.057h7.798v7.798   h-7.798V189.057z" data-original="#4C5568" class=""/>
	<path style="fill:#4C5568;" d="M202.588,152.765h-64.929c-4.268,0-7.726,3.459-7.726,7.726v64.929c0,4.268,3.459,7.726,7.726,7.726   h64.929c4.268,0,7.726-3.459,7.726-7.726v-64.929C210.314,156.224,206.855,152.765,202.588,152.765z M194.861,217.694h-49.476   v-49.476h49.476V217.694z" data-original="#4C5568" class=""/>
	<path style="fill:#4C5568;" d="M158.497,388.275h23.251c4.268,0,7.726-3.459,7.726-7.726v-23.25c0-4.268-3.459-7.726-7.726-7.726   h-23.251c-4.268,0-7.726,3.459-7.726,7.726v23.25C150.771,384.816,154.23,388.275,158.497,388.275z M166.224,365.025h7.798v7.798   h-7.798V365.025z" data-original="#4C5568" class=""/>
	<path style="fill:#4C5568;" d="M202.588,328.733h-64.929c-4.268,0-7.726,3.459-7.726,7.726v64.929c0,4.268,3.459,7.726,7.726,7.726   h64.929c4.268,0,7.726-3.459,7.726-7.726v-64.929C210.314,332.192,206.855,328.733,202.588,328.733z M194.861,393.662h-49.476   v-49.476h49.476V393.662z" data-original="#4C5568" class=""/>
	<path style="fill:#4C5568;" d="M330.253,212.307h23.251c4.268,0,7.726-3.459,7.726-7.726V181.33c0-4.268-3.459-7.726-7.726-7.726   h-23.251c-4.268,0-7.726,3.459-7.726,7.726v23.251C322.526,208.849,325.985,212.307,330.253,212.307z M337.979,189.057h7.798v7.798   h-7.798V189.057z" data-original="#4C5568" class=""/>
	<path style="fill:#4C5568;" d="M374.343,152.765h-64.929c-4.268,0-7.726,3.459-7.726,7.726v64.929c0,4.268,3.459,7.726,7.726,7.726   h64.929c4.268,0,7.726-3.459,7.726-7.726v-64.929C382.068,156.224,378.61,152.765,374.343,152.765z M366.617,217.694h-49.476   v-49.476h49.476V217.694L366.617,217.694z" data-original="#4C5568" class=""/>
	<path style="fill:#4C5568;" d="M137.659,321.298c4.268,0,7.726-3.459,7.726-7.726v-4.1h3.254v4.1c0,4.268,3.459,7.726,7.726,7.726   h42.14c4.268,0,7.726-3.459,7.726-7.726c0-4.268-3.459-7.726-7.726-7.726h-34.413v-4.1c0-4.268-3.459-7.726-7.726-7.726h-10.98   v-4.099c0-4.268-3.459-7.726-7.726-7.726s-7.726,3.459-7.726,7.726v23.651C129.933,317.84,133.391,321.298,137.659,321.298z" data-original="#4C5568" class=""/>
	<path style="fill:#4C5568;" d="M137.659,280.502c4.268,0,7.726-3.459,7.726-7.726v-29.393c0-4.268-3.459-7.726-7.726-7.726   s-7.726,3.459-7.726,7.726v29.393C129.933,277.043,133.391,280.502,137.659,280.502z" data-original="#4C5568" class=""/>
	<path style="fill:#4C5568;" d="M156.365,256.905c-4.268,0-7.726,3.459-7.726,7.726c0,4.268,3.459,7.726,7.726,7.726h13.758   c4.268,0,7.726-3.459,7.726-7.726v-13.523h12.93v42.06c0,4.268,3.459,7.726,7.726,7.726s7.726-3.459,7.726-7.726v-49.787   c0-4.268-3.459-7.726-7.726-7.726h-41.59c-4.268,0-7.726,3.459-7.726,7.726s3.459,7.726,7.726,7.726h5.481v5.797L156.365,256.905   L156.365,256.905z" data-original="#4C5568" class=""/>
	<path style="fill:#4C5568;" d="M181.443,300.934c4.268,0,7.726-3.459,7.726-7.726v-11.023c0-4.268-3.459-7.726-7.726-7.726h-23.729   c-4.268,0-7.726,3.459-7.726,7.726s3.459,7.726,7.726,7.726h16.003v3.297C173.715,297.475,177.174,300.934,181.443,300.934z" data-original="#4C5568" class=""/>
	<path style="fill:#4C5568;" d="M261.365,168.218h29.392c4.268,0,7.726-3.459,7.726-7.726c0-4.268-3.459-7.726-7.726-7.726h-29.392   c-4.268,0-7.726,3.459-7.726,7.726C253.64,164.759,257.099,168.218,261.365,168.218z" data-original="#4C5568" class=""/>
	<path style="fill:#4C5568;" d="M220.568,250.857c4.268,0,7.726-3.459,7.726-7.726v-54.146h4.099c4.268,0,7.726-3.459,7.726-7.726   v-13.04h4.1c4.268,0,7.726-3.459,7.726-7.726c0-4.268-3.459-7.726-7.726-7.726h-23.651c-4.268,0-7.726,3.459-7.726,7.726   c0,4.268,3.459,7.726,7.726,7.726h4.099v5.314h-4.099c-4.268,0-7.726,3.459-7.726,7.726v61.872   C212.842,247.398,216.301,250.857,220.568,250.857z" data-original="#4C5568" class=""/>
	<path style="fill:#4C5568;" d="M244.229,180.546v16.003h-3.296c-4.268,0-7.726,3.459-7.726,7.726s3.459,7.726,7.726,7.726h11.022   c4.268,0,7.726-3.459,7.726-7.726v-23.729c0-4.268-3.459-7.726-7.726-7.726C247.688,172.819,244.229,176.278,244.229,180.546z" data-original="#4C5568" class=""/>
	<path style="fill:#4C5568;" d="M282.594,327.917h-21.228c-4.268,0-7.726,3.459-7.726,7.726s3.459,7.726,7.726,7.726h21.228   c4.268,0,7.726-3.459,7.726-7.726S286.862,327.917,282.594,327.917z" data-original="#4C5568" class=""/>
	<path style="fill:#4C5568;" d="M228.296,380.651v-16.768h4.099c4.268,0,7.726-3.459,7.726-7.726V343.37h4.1   c4.268,0,7.726-3.459,7.726-7.726s-3.459-7.726-7.726-7.726H220.57c-4.268,0-7.726,3.459-7.726,7.726s3.459,7.726,7.726,7.726   h4.099v5.061h-4.099c-4.268,0-7.726,3.459-7.726,7.726v24.494c0,4.268,3.459,7.726,7.726,7.726   C224.837,388.378,228.296,384.919,228.296,380.651z" data-original="#4C5568" class=""/>
	<path style="fill:#4C5568;" d="M282.594,348.982c-4.268,0-7.726,3.459-7.726,7.726v8.571h-0.897v-9.123   c0-4.268-3.459-7.726-7.726-7.726c-4.267,0-7.726,3.459-7.726,7.726v16.849c0,4.268,3.459,7.726,7.726,7.726h8.624v12.929h-46.182   c-4.268,0-7.726,3.459-7.726,7.726s3.459,7.726,7.726,7.726h53.908c4.268,0,7.726-3.459,7.726-7.726v-44.679   C290.32,352.441,286.862,348.982,282.594,348.982z" data-original="#4C5568" class=""/>
	<path style="fill:#4C5568;" d="M240.964,360.597v13.942h-1.235c-4.268,0-7.726,3.459-7.726,7.726s3.459,7.726,7.726,7.726h8.962   c4.268,0,7.726-3.459,7.726-7.726v-21.668c0-4.268-3.459-7.726-7.726-7.726S240.964,356.33,240.964,360.597z" data-original="#4C5568" class=""/>
	<path style="fill:#4C5568;" d="M373.086,236.439h-29.393c-4.268,0-7.726,3.459-7.726,7.726c0,4.268,3.459,7.726,7.726,7.726h29.393   c4.268,0,7.726-3.459,7.726-7.726S377.352,236.439,373.086,236.439z" data-original="#4C5568" class=""/>
	<path style="fill:#4C5568;" d="M373.086,325.76h-46.539c-4.268,0-7.726,3.459-7.726,7.726s3.459,7.726,7.726,7.726h38.813v52.449   h-54.737V271.628h4.1c4.268,0,7.726-3.459,7.726-7.726v-12.01h4.099c4.268,0,7.726-3.459,7.726-7.726   c0-4.268-3.459-7.726-7.726-7.726h-23.651c-4.268,0-7.726,3.459-7.726,7.726c0,4.268,3.459,7.726,7.726,7.726h4.1v4.284h-4.1   c-4.268,0-7.726,3.459-7.726,7.726v43.576h-66.873v-35.121h19.618v16.008c0,4.268,3.459,7.726,7.726,7.726h28.542   c4.268,0,7.726-3.459,7.726-7.726c0-4.268-3.459-7.726-7.726-7.726h-20.816v-8.282h8.614c4.268,0,7.726-3.459,7.726-7.726v-35.567   h11.052c4.268,0,7.726-3.459,7.726-7.726v-41.589c0-4.268-3.459-7.726-7.726-7.726c-4.267,0-7.726,3.459-7.726,7.726v5.48h-5.796   v-6.031c0-4.268-3.459-7.726-7.726-7.726c-4.267,0-7.726,3.459-7.726,7.726v13.758c0,4.268,3.459,7.726,7.726,7.726h13.522v12.93   h-43.091c-4.268,0-7.726,3.459-7.726,7.726s3.459,7.726,7.726,7.726h24.312v27.841h-16.799v-6.048h4.064   c4.268,0,7.726-3.459,7.726-7.726s-3.459-7.726-7.726-7.726h-11.791c-4.268,0-7.726,3.459-7.726,7.726v13.775H220.57   c-4.268,0-7.726,3.459-7.726,7.726v50.573c0,4.268,3.459,7.726,7.726,7.726h74.6v78.457c0,4.268,3.459,7.726,7.726,7.726h70.19   c4.268,0,7.726-3.459,7.726-7.726v-67.901C380.812,329.219,377.352,325.76,373.086,325.76z" data-original="#4C5568" class=""/>
	<path style="fill:#4C5568;" d="M373.086,255.697c-4.268,0-7.726,3.459-7.726,7.726v5.48h-5.796v-6.031   c0-4.268-3.459-7.726-7.726-7.726c-4.268,0-7.726,3.459-7.726,7.726v13.758c0,4.268,3.459,7.726,7.726,7.726h13.522v3.147h-11.855   c-4.268,0-7.726,3.459-7.726,7.726s3.459,7.726,7.726,7.726h11.855v3.493h-46.181c-4.268,0-7.726,3.459-7.726,7.726   s3.459,7.726,7.726,7.726h53.907c4.268,0,7.726-3.459,7.726-7.726v-50.751C380.812,259.156,377.352,255.697,373.086,255.697z" data-original="#4C5568" class=""/>
	<path style="fill:#4C5568;" d="M326.555,264.22v21.718h-3.296c-4.268,0-7.726,3.459-7.726,7.726s3.459,7.726,7.726,7.726h11.022   c4.268,0,7.726-3.459,7.726-7.726V264.22c0-4.268-3.459-7.726-7.726-7.726C330.015,256.494,326.555,259.952,326.555,264.22z" data-original="#4C5568" class=""/>
	<path style="fill:#4C5568;" d="M355.555,390.081c4.268,0,7.726-3.459,7.726-7.726v-30.944c0-4.268-3.459-7.726-7.726-7.726h-35.129   c-4.268,0-7.726,3.459-7.726,7.726s3.459,7.726,7.726,7.726h27.402v23.217C347.828,386.622,351.287,390.081,355.555,390.081z" data-original="#4C5568" class=""/>
	<path style="fill:#4C5568;" d="M321.471,360.795c-4.268,0-7.726,3.459-7.726,7.726v7.879c0,4.268,3.459,7.726,7.726,7.726h17.564   c4.268,0,7.726-3.459,7.726-7.726s-3.459-7.726-7.726-7.726h-9.838v-0.153C329.198,364.254,325.739,360.795,321.471,360.795z" data-original="#4C5568" class=""/>
</g></g> </svg>
